timeStamp,elapsed,label,responseCode,responseMessage,threadName,dataType,success,failureMessage,bytes,sentBytes,grpThreads,allThreads,URL,Latency,IdleTime,Connect
1605560534455,232,HTTP Request,200,,Thread Group 1-6,text,true,,171,132,10,13,http://localhost:8888/table/api/ver,205,0,104
1605560534455,232,HTTP Request,200,,Thread Group 1-4,text,true,,171,132,10,13,http://localhost:8888/table/api/ver,208,0,104
1605560534455,232,HTTP Request,200,,Thread Group 1-8,text,true,,171,132,10,13,http://localhost:8888/table/api/ver,207,0,105
1605560534455,231,HTTP Request,200,,Thread Group 1-3,text,true,,171,132,10,13,http://localhost:8888/table/api/ver,205,0,104
1605560534455,233,HTTP Request,200,,Thread Group 1-9,text,true,,171,132,10,13,http://localhost:8888/table/api/ver,209,0,107
1605560534458,229,HTTP Request,200,,Thread Group 1-1,text,true,,171,132,10,13,http://localhost:8888/table/api/ver,204,0,104
1605560534455,232,HTTP Request,200,,Thread Group 1-7,text,true,,171,132,10,13,http://localhost:8888/table/api/ver,205,0,105
1605560534455,232,HTTP Request,200,,Thread Group 1-2,text,true,,171,132,10,13,http://localhost:8888/table/api/ver,208,0,112
1605560534455,232,HTTP Request,200,,Thread Group 1-5,text,true,,171,132,10,13,http://localhost:8888/table/api/ver,207,0,105
1605560534455,230,HTTP Request,200,,Thread Group 1-10,text,true,,171,132,10,13,http://localhost:8888/table/api/ver,209,0,106
1605560534998,59,JMS Publisher,200,1 messages published,Thread Group 2-1,,true,,0,0,3,3,null,0,0,0
1605560534998,59,JMS Publisher,200,1 messages published,Thread Group 2-2,,true,,0,0,3,3,null,0,0,0
1605560534998,59,JMS Publisher,200,1 messages published,Thread Group 2-3,,true,,0,0,3,3,null,0,0,0
1605560535059,9,JMS Subscriber,200,1 message(s) received successfully of 1 expected,Thread Group 2-1,text,true,,79,0,3,3,null,0,0,0
1605560535059,9,JMS Subscriber,200,1 message(s) received successfully of 1 expected,Thread Group 2-2,text,true,,79,0,3,3,null,0,0,0
1605560535058,10,JMS Subscriber,200,1 message(s) received successfully of 1 expected,Thread Group 2-3,text,true,,79,0,3,3,null,0,0,0
